<svg width="231" height="220" viewBox="0 0 231 220" fill="none" xmlns="http://www.w3.org/2000/svg">
<path d="M55.7789 37.477C30.4865 58.1007 6.13091 84.0365 0.97876 115.128C-4.01727 146.22 10.5024 182.311 35.6387 200.904C60.9311 219.653 96.9962 220.903 131.812 219.653C166.472 218.403 199.883 214.497 216.276 195.748C232.513 176.999 231.577 143.564 229.547 112.316C227.361 80.9117 224.083 51.6949 207.689 31.0712C191.452 10.6038 162.257 -1.42671 134.623 0.135685C106.988 1.85432 81.0713 16.8534 55.7789 37.477Z" fill="white"/>
<g clip-path="url(#clip0)">
<path d="M202.374 179.885L203.096 178.106C203.974 177.869 204.865 177.682 205.764 177.545L205.705 178.41L206.075 177.499C207.188 177.341 207.935 177.307 207.935 177.307C207.935 177.307 206.434 180.913 203.974 183.488L201.51 183.578L203.342 184.106C203.039 184.382 202.719 184.639 202.383 184.876C198.995 187.247 195.473 188.064 194.517 186.699C193.561 185.335 195.533 182.306 198.921 179.934C200.017 179.205 201.219 178.648 202.484 178.283L202.374 179.885Z" fill="#E6E6E6"/>
<path d="M195.98 171.721L195.064 169.091C195.793 167.994 196.584 166.938 197.432 165.929L198.196 166.928L197.726 165.582C198.788 164.345 199.569 163.593 199.569 163.593C199.569 163.593 201.386 168.956 201.173 174.113L198.576 176.568L201.075 175.39C201.01 175.981 200.908 176.568 200.769 177.146C199.35 182.97 196.296 187.227 193.949 186.656C191.601 186.084 190.849 180.9 192.268 175.076C192.764 173.234 193.539 171.478 194.567 169.871L195.98 171.721Z" fill="#E6E6E6"/>
<path d="M176.323 188.774C192.5 188.774 205.615 188.098 205.615 187.263C205.615 186.429 192.5 185.752 176.323 185.752C160.146 185.752 147.032 186.429 147.032 187.263C147.032 188.098 160.146 188.774 176.323 188.774Z" fill="#E6E6E6"/>
<path d="M77.819 74.5787H57.1264V74.9565H77.819C78.8377 74.9565 79.8148 75.361 80.5351 76.0811C81.2555 76.8011 81.6602 77.7777 81.6602 78.796C81.6602 79.8143 81.2555 80.7909 80.5351 81.5109C79.8148 82.231 78.8377 82.6355 77.819 82.6355H46.5076C45.4888 82.6355 44.5118 82.231 43.7914 81.5109C43.071 80.7909 42.6663 79.8143 42.6663 78.796C42.6663 77.7777 43.071 76.8011 43.7914 76.0811C44.5118 75.361 45.4888 74.9565 46.5076 74.9565H47.6777V74.5787H46.5076C45.3886 74.5787 44.3154 75.023 43.5242 75.8139C42.7329 76.6048 42.2884 77.6775 42.2884 78.796C42.2884 79.9145 42.7329 80.9872 43.5242 81.7781C44.3154 82.569 45.3886 83.0133 46.5076 83.0133H77.819C78.938 83.0133 80.0111 82.569 80.8024 81.7781C81.5936 80.9872 82.0382 79.9145 82.0382 78.796C82.0382 77.6775 81.5936 76.6048 80.8024 75.8139C80.0111 75.023 78.938 74.5787 77.819 74.5787Z" fill="#E6E6E6"/>
<path d="M77.819 87.6121H57.1264V87.9899H77.819C78.8377 87.9899 79.8148 88.3944 80.5351 89.1144C81.2555 89.8345 81.6602 90.8111 81.6602 91.8294C81.6602 92.8477 81.2555 93.8243 80.5351 94.5443C79.8148 95.2644 78.8377 95.6689 77.819 95.6689H46.5076C45.4888 95.6689 44.5118 95.2644 43.7914 94.5443C43.071 93.8243 42.6663 92.8477 42.6663 91.8294C42.6663 90.8111 43.071 89.8345 43.7914 89.1144C44.5118 88.3944 45.4888 87.9899 46.5076 87.9899H47.6777V87.6121H46.5076C45.3891 87.6129 44.3166 88.0575 43.526 88.8483C42.7354 89.6391 42.2913 90.7114 42.2913 91.8294C42.2913 92.9474 42.7354 94.0196 43.526 94.8104C44.3166 95.6012 45.3891 96.0459 46.5076 96.0467H77.819C78.9375 96.0459 80.0099 95.6012 80.8005 94.8104C81.5912 94.0196 82.0353 92.9474 82.0353 91.8294C82.0353 90.7114 81.5912 89.6391 80.8005 88.8483C80.0099 88.0575 78.9375 87.6129 77.819 87.6121Z" fill="#F50057"/>
<path d="M77.819 100.646H57.1264V101.023H77.819C78.8378 101.023 79.8148 101.428 80.5352 102.148C81.2555 102.868 81.6602 103.844 81.6602 104.863C81.6602 105.881 81.2555 106.858 80.5352 107.578C79.8148 108.298 78.8378 108.702 77.819 108.702H46.5076C45.4888 108.702 44.5118 108.298 43.7914 107.578C43.071 106.858 42.6663 105.881 42.6663 104.863C42.6663 103.844 43.071 102.868 43.7914 102.148C44.5118 101.428 45.4888 101.023 46.5076 101.023H47.6777V100.646H46.5076C45.3886 100.646 44.3154 101.09 43.5242 101.881C42.7329 102.672 42.2884 103.744 42.2884 104.863C42.2884 105.981 42.7329 107.054 43.5242 107.845C44.3154 108.636 45.3886 109.08 46.5076 109.08H77.819C78.9375 109.079 80.0099 108.635 80.8005 107.844C81.5912 107.053 82.0353 105.981 82.0353 104.863C82.0353 103.745 81.5912 102.673 80.8005 101.882C80.0099 101.091 78.9375 100.646 77.819 100.646Z" fill="#E6E6E6"/>
<path d="M50.0133 73.5807C49.7185 73.5855 49.4374 73.706 49.2307 73.9161C49.0239 74.1262 48.908 74.4091 48.908 74.7038C48.908 74.9986 49.0239 75.2815 49.2307 75.4916C49.4374 75.7017 49.7185 75.8221 50.0133 75.827H54.9429C55.2407 75.8316 55.5282 75.7178 55.7422 75.5107C55.9561 75.3035 56.0791 75.02 56.084 74.7223C56.0889 74.4246 55.9753 74.1371 55.7683 73.923C55.5612 73.709 55.2776 73.5859 54.9798 73.5807C54.9675 73.5805 54.9552 73.5805 54.9429 73.5807H50.0133Z" fill="#3F3D56"/>
<path d="M50.0133 86.803C49.7185 86.8078 49.4374 86.9283 49.2306 87.1384C49.0238 87.3485 48.908 87.6314 48.908 87.9261C48.908 88.2208 49.0238 88.5038 49.2306 88.7139C49.4374 88.924 49.7185 89.0444 50.0133 89.0493H54.9429C55.2409 89.0542 55.5286 88.9405 55.7428 88.7333C55.957 88.5262 56.0801 88.2424 56.085 87.9446C56.0899 87.6467 55.9762 87.3591 55.7689 87.145C55.5617 86.9309 55.2778 86.8079 54.9798 86.803C54.9675 86.8028 54.9552 86.8028 54.9429 86.803H50.0133Z" fill="#3F3D56"/>
<path d="M50.0133 99.6475C49.7185 99.6523 49.4374 99.7728 49.2306 99.9829C49.0238 100.193 48.908 100.476 48.908 100.771C48.908 101.065 49.0238 101.348 49.2306 101.558C49.4374 101.768 49.7185 101.889 50.0133 101.894H54.9429C55.2409 101.899 55.5286 101.785 55.7428 101.578C55.957 101.371 56.0801 101.087 56.085 100.789C56.0899 100.491 55.9762 100.204 55.7689 99.9895C55.5617 99.7754 55.2778 99.6524 54.9798 99.6475C54.9675 99.6473 54.9552 99.6473 54.9429 99.6475H50.0133Z" fill="#3F3D56"/>
<path d="M48.0581 77.6729C47.7633 77.6777 47.4822 77.7981 47.2754 78.0082C47.0686 78.2184 46.9528 78.5013 46.9528 78.796C46.9528 79.0907 47.0686 79.3736 47.2754 79.5838C47.4822 79.7939 47.7633 79.9143 48.0581 79.9191H76.2316C76.5296 79.924 76.8174 79.8104 77.0315 79.6032C77.2457 79.3961 77.3688 79.1123 77.3737 78.8144C77.3786 78.5166 77.2649 78.2289 77.0576 78.0149C76.8504 77.8008 76.5665 77.6777 76.2685 77.6729C76.2562 77.6726 76.2439 77.6726 76.2316 77.6729H48.0581Z" fill="#E6E6E6"/>
<path d="M77.819 62.3009H57.1264V62.6787H77.819C78.8377 62.6787 79.8148 63.0832 80.5351 63.8032C81.2555 64.5233 81.6602 65.4999 81.6602 66.5182C81.6602 67.5365 81.2555 68.5131 80.5351 69.2331C79.8148 69.9531 78.8377 70.3577 77.819 70.3577H46.5076C45.4893 70.3569 44.5129 69.9521 43.7932 69.2321C43.0734 68.5122 42.6691 67.536 42.6691 66.5182C42.6691 65.5003 43.0734 64.5242 43.7932 63.8042C44.5129 63.0842 45.4893 62.6794 46.5076 62.6787H47.6777V62.3009H46.5076C45.3891 62.3017 44.3166 62.7463 43.526 63.5371C42.7354 64.3279 42.2913 65.4002 42.2913 66.5182C42.2913 67.6362 42.7354 68.7084 43.526 69.4992C44.3166 70.29 45.3891 70.7347 46.5076 70.7354H77.819C78.9375 70.7347 80.0099 70.29 80.8005 69.4992C81.5912 68.7084 82.0353 67.6362 82.0353 66.5182C82.0353 65.4002 81.5912 64.3279 80.8005 63.5371C80.0099 62.7463 78.9375 62.3017 77.819 62.3009Z" fill="#E6E6E6"/>
<path d="M50.0133 61.3029C49.7185 61.3077 49.4374 61.4281 49.2306 61.6383C49.0238 61.8484 48.908 62.1313 48.908 62.426C48.908 62.7207 49.0238 63.0037 49.2306 63.2138C49.4374 63.4239 49.7185 63.5443 50.0133 63.5491H54.9429C55.2409 63.554 55.5286 63.4404 55.7428 63.2332C55.957 63.0261 56.0801 62.7423 56.085 62.4444C56.0899 62.1466 55.9762 61.859 55.7689 61.6449C55.5617 61.4308 55.2778 61.3078 54.9798 61.3029C54.9675 61.3027 54.9552 61.3027 54.9429 61.3029H50.0133Z" fill="#3F3D56"/>
<path d="M48.0581 65.395C47.7633 65.3999 47.4822 65.5203 47.2754 65.7304C47.0686 65.9405 46.9528 66.2234 46.9528 66.5182C46.9528 66.8129 47.0686 67.0958 47.2754 67.3059C47.4822 67.516 47.7633 67.6365 48.0581 67.6413H76.2315C76.3792 67.6439 76.5259 67.6173 76.6633 67.5632C76.8006 67.509 76.926 67.4284 77.0321 67.3258C77.1383 67.2232 77.2232 67.1007 77.282 66.9653C77.3407 66.8299 77.3722 66.6842 77.3747 66.5366C77.3771 66.389 77.3504 66.2424 77.2961 66.1052C77.2418 65.9679 77.161 65.8427 77.0583 65.7367C76.9555 65.6306 76.8329 65.5459 76.6974 65.4873C76.5618 65.4287 76.4161 65.3973 76.2684 65.395C76.2561 65.3948 76.2438 65.3948 76.2315 65.395H48.0581Z" fill="#E6E6E6"/>
<path d="M48.0581 90.7062C47.7633 90.7111 47.4822 90.8315 47.2754 91.0416C47.0686 91.2517 46.9528 91.5347 46.9528 91.8294C46.9528 92.1241 47.0686 92.407 47.2754 92.6171C47.4822 92.8272 47.7633 92.9477 48.0581 92.9525H76.2316C76.3792 92.9549 76.5258 92.9283 76.663 92.8741C76.8003 92.8199 76.9255 92.7392 77.0315 92.6366C77.1376 92.534 77.2224 92.4116 77.2811 92.2762C77.3398 92.1409 77.3713 91.9953 77.3737 91.8478C77.3761 91.7003 77.3495 91.5538 77.2952 91.4166C77.241 91.2794 77.1603 91.1542 77.0576 91.0482C76.955 90.9422 76.8325 90.8575 76.6971 90.7988C76.5617 90.7401 76.4161 90.7087 76.2685 90.7062C76.2562 90.706 76.2439 90.706 76.2316 90.7062H48.0581Z" fill="#F50057"/>
<path d="M48.0581 103.74C47.7633 103.744 47.4822 103.865 47.2754 104.075C47.0686 104.285 46.9528 104.568 46.9528 104.863C46.9528 105.158 47.0686 105.44 47.2754 105.651C47.4822 105.861 47.7633 105.981 48.0581 105.986H76.2316C76.3792 105.988 76.5258 105.962 76.663 105.907C76.8003 105.853 76.9255 105.773 77.0315 105.67C77.1376 105.567 77.2224 105.445 77.2811 105.31C77.3398 105.174 77.3713 105.029 77.3737 104.881C77.3761 104.734 77.3495 104.587 77.2952 104.45C77.241 104.313 77.1603 104.188 77.0576 104.082C76.955 103.976 76.8325 103.891 76.6971 103.832C76.5617 103.774 76.4161 103.742 76.2685 103.74C76.2562 103.739 76.2439 103.739 76.2316 103.74H48.0581Z" fill="#E6E6E6"/>
<path d="M90.4344 91.9169L86.1824 89.4632V94.3707L90.4344 91.9169L86.1824 89.4632V94.3707L90.4344 91.9169Z" fill="#F50057"/>
<path d="M94.1194 118.719H27.6754C27.4499 118.719 27.2338 118.629 27.0743 118.47C26.9149 118.311 26.8252 118.095 26.825 117.869V52.5134C26.8252 52.2881 26.9149 52.072 27.0743 51.9127C27.2338 51.7533 27.4499 51.6637 27.6754 51.6634H96.6512C96.8767 51.6637 97.0928 51.7533 97.2523 51.9127C97.4117 52.072 97.5013 52.2881 97.5016 52.5134V91.2086H98.0685V52.5134C98.0681 52.1378 97.9186 51.7777 97.6529 51.5122C97.3872 51.2466 97.027 51.0972 96.6512 51.0968H27.6754C27.2996 51.0972 26.9393 51.2466 26.6736 51.5122C26.4079 51.7777 26.2585 52.1378 26.2581 52.5134V117.869C26.2585 118.245 26.4079 118.605 26.6736 118.871C26.9393 119.136 27.2996 119.286 27.6754 119.286H94.1194V118.719Z" fill="#E6E6E6"/>
<path d="M155.081 90.2641H95.5197C94.7467 90.2641 94.1194 90.7533 94.1194 91.3561V104.242H156.481V91.3561C156.481 90.7533 155.854 90.2641 155.081 90.2641Z" fill="#F50057"/>
<path d="M155.442 89.8864H95.1587C94.7829 89.8865 94.4224 90.0358 94.1567 90.3014C93.8909 90.5671 93.7415 90.9273 93.7414 91.303V139.47C93.7415 139.846 93.8909 140.206 94.1567 140.472C94.4224 140.737 94.7829 140.886 95.1587 140.887H155.442C155.818 140.886 156.178 140.737 156.444 140.472C156.71 140.206 156.859 139.846 156.859 139.47V91.303C156.859 90.9273 156.71 90.5671 156.444 90.3014C156.178 90.0358 155.818 89.8865 155.442 89.8864ZM156.292 139.47C156.292 139.695 156.202 139.911 156.043 140.071C155.883 140.23 155.667 140.32 155.442 140.32H95.1587C94.9333 140.32 94.7172 140.23 94.5578 140.071C94.3984 139.911 94.3087 139.695 94.3083 139.47V91.303C94.3087 91.0777 94.3984 90.8617 94.5578 90.7024C94.7172 90.543 94.9333 90.4534 95.1587 90.453H155.442C155.667 90.4534 155.883 90.543 156.043 90.7024C156.202 90.8617 156.292 91.0777 156.292 91.303V139.47Z" fill="#E6E6E6"/>
<path d="M140.956 111.29H120.263V111.668H140.956C141.975 111.668 142.952 112.073 143.672 112.793C144.392 113.513 144.797 114.489 144.797 115.508C144.797 116.526 144.392 117.503 143.672 118.223C142.952 118.943 141.975 119.347 140.956 119.347H109.645C108.626 119.347 107.649 118.943 106.928 118.223C106.208 117.503 105.803 116.526 105.803 115.508C105.803 114.489 106.208 113.513 106.928 112.793C107.649 112.073 108.626 111.668 109.645 111.668H110.815V111.29H109.645C108.526 111.29 107.452 111.735 106.661 112.526C105.87 113.317 105.425 114.389 105.425 115.508C105.425 116.626 105.87 117.699 106.661 118.49C107.452 119.281 108.526 119.725 109.645 119.725H140.956C142.075 119.725 143.148 119.281 143.939 118.49C144.731 117.699 145.175 116.626 145.175 115.508C145.175 114.389 144.731 113.317 143.939 112.526C143.148 111.735 142.075 111.29 140.956 111.29Z" fill="#E6E6E6"/>
<path d="M140.956 124.324H120.263V124.702H140.956C141.975 124.702 142.952 125.106 143.672 125.826C144.392 126.546 144.797 127.523 144.797 128.541C144.797 129.559 144.392 130.536 143.672 131.256C142.952 131.976 141.975 132.381 140.956 132.381H109.645C108.626 132.381 107.649 131.976 106.928 131.256C106.208 130.536 105.803 129.559 105.803 128.541C105.803 127.523 106.208 126.546 106.928 125.826C107.649 125.106 108.626 124.702 109.645 124.702H110.815V124.324H109.645C108.526 124.324 107.452 124.768 106.661 125.559C105.87 126.35 105.425 127.423 105.425 128.541C105.425 129.66 105.87 130.732 106.661 131.523C107.452 132.314 108.526 132.758 109.645 132.758H140.956C142.075 132.758 143.148 132.314 143.939 131.523C144.731 130.732 145.175 129.66 145.175 128.541C145.175 127.423 144.731 126.35 143.939 125.559C143.148 124.768 142.075 124.324 140.956 124.324Z" fill="#E6E6E6"/>
<path d="M113.15 110.481C112.855 110.486 112.574 110.607 112.368 110.817C112.161 111.027 112.045 111.31 112.045 111.604C112.045 111.899 112.161 112.182 112.368 112.392C112.574 112.602 112.855 112.723 113.15 112.728H118.08C118.378 112.733 118.666 112.619 118.88 112.412C119.094 112.205 119.217 111.921 119.222 111.623C119.227 111.325 119.113 111.037 118.906 110.823C118.699 110.609 118.415 110.486 118.117 110.481C118.104 110.481 118.092 110.481 118.08 110.481H113.15Z" fill="#3F3D56"/>
<path d="M113.15 123.326C112.855 123.331 112.574 123.451 112.368 123.661C112.161 123.871 112.045 124.154 112.045 124.449C112.045 124.744 112.161 125.027 112.368 125.237C112.574 125.447 112.855 125.567 113.15 125.572H118.08C118.378 125.577 118.666 125.463 118.88 125.256C119.094 125.049 119.217 124.765 119.222 124.467C119.227 124.17 119.113 123.882 118.906 123.668C118.699 123.454 118.415 123.331 118.117 123.326C118.104 123.326 118.092 123.326 118.08 123.326H113.15Z" fill="#3F3D56"/>
<path d="M111.195 114.385C110.9 114.389 110.619 114.51 110.412 114.72C110.206 114.93 110.09 115.213 110.09 115.508C110.09 115.802 110.206 116.085 110.412 116.296C110.619 116.506 110.9 116.626 111.195 116.631H139.369C139.516 116.633 139.663 116.607 139.8 116.552C139.937 116.498 140.062 116.418 140.168 116.315C140.275 116.212 140.359 116.09 140.418 115.955C140.477 115.819 140.508 115.674 140.511 115.526C140.513 115.379 140.486 115.232 140.432 115.095C140.378 114.958 140.297 114.833 140.195 114.727C140.092 114.621 139.969 114.536 139.834 114.477C139.699 114.418 139.553 114.387 139.405 114.385C139.393 114.384 139.381 114.384 139.369 114.385H111.195Z" fill="#E6E6E6"/>
<path d="M111.195 127.418C110.9 127.423 110.619 127.543 110.412 127.753C110.206 127.964 110.09 128.246 110.09 128.541C110.09 128.836 110.206 129.119 110.412 129.329C110.619 129.539 110.9 129.659 111.195 129.664H139.369C139.516 129.667 139.663 129.64 139.8 129.586C139.937 129.532 140.062 129.451 140.168 129.348C140.275 129.246 140.359 129.123 140.418 128.988C140.477 128.853 140.508 128.707 140.511 128.56C140.513 128.412 140.486 128.266 140.432 128.128C140.378 127.991 140.297 127.866 140.195 127.76C140.092 127.654 139.969 127.569 139.834 127.511C139.699 127.452 139.553 127.42 139.405 127.418C139.393 127.418 139.381 127.418 139.369 127.418H111.195Z" fill="#E6E6E6"/>
<path d="M102.419 101.316C104.664 101.316 106.484 99.4972 106.484 97.253C106.484 95.0089 104.664 93.1897 102.419 93.1897C100.173 93.1897 98.3534 95.0089 98.3534 97.253C98.3534 99.4972 100.173 101.316 102.419 101.316Z" fill="white"/>
<path d="M109.71 94.0453C109.445 94.0497 109.193 94.1576 109.008 94.346C108.823 94.5343 108.719 94.7879 108.719 95.052C108.719 95.3162 108.823 95.5698 109.008 95.7581C109.193 95.9465 109.445 96.0544 109.71 96.0587H134.962C135.095 96.0609 135.226 96.037 135.349 95.9884C135.472 95.9399 135.584 95.8675 135.679 95.7756C135.774 95.6836 135.85 95.5739 135.903 95.4526C135.956 95.3313 135.984 95.2008 135.986 95.0686C135.988 94.9364 135.964 94.805 135.916 94.6821C135.867 94.5591 135.795 94.4469 135.703 94.3519C135.611 94.2569 135.501 94.1809 135.38 94.1283C135.258 94.0757 135.128 94.0475 134.995 94.0453C134.984 94.0451 134.973 94.0451 134.962 94.0453H109.71Z" fill="white"/>
<path d="M109.71 98.4473C109.445 98.4517 109.193 98.5596 109.008 98.748C108.823 98.9363 108.719 99.1899 108.719 99.4541C108.719 99.7182 108.823 99.9718 109.008 100.16C109.193 100.348 109.445 100.456 109.71 100.461H151.223C151.49 100.465 151.748 100.363 151.94 100.178C152.132 99.9919 152.243 99.7376 152.247 99.4706C152.251 99.2036 152.149 98.9458 151.964 98.7539C151.778 98.562 151.523 98.4517 151.256 98.4473C151.245 98.4472 151.234 98.4472 151.223 98.4473H109.71Z" fill="white"/>
<path d="M189.674 102.386L181.359 103.33C181.473 100.778 181.257 98.3963 180.414 96.3415L187.218 93.886C186.608 96.4281 187.753 99.3279 189.674 102.386Z" fill="#A0616A"/>
<path d="M190.677 130.735L193.37 135.541C193.531 135.827 193.633 136.142 193.672 136.468C193.71 136.794 193.684 137.124 193.595 137.439C193.506 137.755 193.356 138.05 193.153 138.307C192.95 138.565 192.698 138.78 192.412 138.94C192.401 138.946 192.39 138.952 192.379 138.958C192.016 139.154 191.611 139.258 191.198 139.259C190.786 139.26 190.379 139.159 190.015 138.965C189.651 138.771 189.341 138.49 189.112 138.147C188.883 137.804 188.743 137.409 188.704 136.999L188.266 132.406L186.774 114.875L184.228 103.344L189.513 101.845L191.973 114.812L190.677 130.735Z" fill="#A0616A"/>
<path d="M195.155 181.909L191.753 181.72L184.194 148.097L168.131 181.909L164.73 181.72L174.556 129.586L174.745 120.142L187.029 119.386C191.619 124.433 194.219 129.652 194.588 135.064L195.155 181.909Z" fill="#2F2E41"/>
<path d="M167.855 187.812C167.211 188.106 166.592 185.656 166.129 186.26C164.573 188.288 160.949 187.652 160.965 187.417C160.726 187.34 160.526 187.171 160.411 186.947C160.296 186.723 160.275 186.463 160.352 186.223C160.357 186.209 160.362 186.194 160.367 186.18C160.421 186.036 160.509 185.908 160.624 185.805C160.739 185.703 160.877 185.63 161.026 185.593L162.641 185.189L165.178 180.73L167.768 180.555C168.345 181.291 168.748 182.148 168.946 183.061C169.144 183.975 169.133 184.922 168.912 185.831C168.677 186.789 168.314 187.603 167.855 187.812Z" fill="#2F2E41"/>
<path d="M194.705 187.812C194.061 188.106 193.442 185.656 192.979 186.26C191.186 188.595 187.694 187.789 187.815 187.417C187.696 187.379 187.586 187.318 187.491 187.237C187.396 187.157 187.318 187.058 187.261 186.947C187.204 186.836 187.169 186.715 187.159 186.591C187.149 186.467 187.163 186.342 187.202 186.223C187.206 186.209 187.211 186.194 187.216 186.18C187.27 186.036 187.359 185.908 187.473 185.805C187.588 185.703 187.726 185.63 187.875 185.593L189.491 185.189L192.028 180.73L194.792 180.38L194.862 180.494C195.397 181.355 195.741 182.32 195.873 183.325C196.005 184.33 195.921 185.351 195.626 186.32C195.396 187.057 195.083 187.639 194.705 187.812Z" fill="#2F2E41"/>
<path d="M182.115 98.0415C185.351 98.0415 187.973 95.4199 187.973 92.1859C187.973 88.952 185.351 86.3304 182.115 86.3304C178.88 86.3304 176.257 88.952 176.257 92.1859C176.257 95.4199 178.88 98.0415 182.115 98.0415Z" fill="#A0616A"/>
<path d="M187.407 120.331L174.745 121.086L173.611 113.908C172.438 110.682 173.905 107.718 176.257 104.842L181.17 99.3638L187.973 99.1749C188.889 99.4755 189.7 100.03 190.313 100.774C190.925 101.518 191.313 102.421 191.431 103.377C191.921 107.393 191.188 111.463 189.327 115.055L187.407 120.331Z" fill="#E6E6E6"/>
<path d="M173.611 136.386L174.517 141.82C174.571 142.143 174.561 142.474 174.487 142.794C174.413 143.113 174.277 143.415 174.086 143.682C173.895 143.948 173.654 144.175 173.376 144.349C173.097 144.522 172.787 144.639 172.464 144.693C172.452 144.695 172.44 144.697 172.427 144.699C172.02 144.761 171.603 144.721 171.214 144.582C170.825 144.444 170.477 144.211 170.201 143.905C169.924 143.6 169.727 143.23 169.628 142.83C169.529 142.429 169.531 142.011 169.633 141.611L170.777 137.142L175.312 120.142L176.824 108.43L182.304 108.808L180.226 121.842L173.611 136.386Z" fill="#A0616A"/>
<path d="M189.141 114.758H189.005C186.45 112.545 184.229 110.064 186.022 106.958C184.501 103.099 182.806 99.0924 182.908 96.6135C183.016 94.7807 182.426 92.975 181.256 91.5593C179.64 89.6723 179.28 88.8295 176.329 89.5431C176.308 88.0605 176.877 86.6305 177.912 85.5676C178.946 84.5047 180.36 83.896 181.843 83.8754C181.937 83.8741 182.031 83.8752 182.124 83.8786L183.969 83.9456C185.379 83.9969 189.888 84.5733 190.856 85.5038C191.347 85.9915 191.718 86.5859 191.941 87.2407C192.164 87.8954 192.233 88.5929 192.142 89.2785C191.961 90.8171 192.446 92.1755 193.744 93.3146C196.228 95.882 197.252 98.546 195.844 101.371C194.781 104.361 194.832 106.823 197.573 108.006C198.464 111.422 192.672 114.758 189.141 114.758Z" fill="#2F2E41"/>
<path d="M182.871 110.697C180.525 108.903 178.194 108.762 175.879 110.508L176.511 103.335C176.494 102.322 176.872 101.341 177.565 100.601C178.259 99.8616 179.214 99.4209 180.227 99.3727C180.739 99.3483 181.25 99.425 181.732 99.5982C182.215 99.7715 182.658 100.038 183.037 100.383C183.416 100.727 183.724 101.143 183.942 101.606C184.16 102.069 184.285 102.571 184.31 103.083C184.314 103.166 184.315 103.25 184.314 103.333L182.871 110.697Z" fill="#E6E6E6"/>
<path d="M182.21 94.736C182.627 94.736 182.966 94.1017 182.966 93.3193C182.966 92.5369 182.627 91.9026 182.21 91.9026C181.792 91.9026 181.454 92.5369 181.454 93.3193C181.454 94.1017 181.792 94.736 182.21 94.736Z" fill="#A0616A"/>
</g>
<defs>
<clipPath id="clip0">
<rect width="181.677" height="137.677" fill="white" transform="translate(26.2581 51.0968)"/>
</clipPath>
</defs>
</svg>
