<svg width="28" height="28" viewBox="0 0 28 28" fill="none" xmlns="http://www.w3.org/2000/svg">
<path d="M14.0002 25.6667C20.4435 25.6667 25.6668 20.4433 25.6668 14C25.6668 7.55669 20.4435 2.33334 14.0002 2.33334C7.55684 2.33334 2.3335 7.55669 2.3335 14C2.3335 20.4433 7.55684 25.6667 14.0002 25.6667Z" stroke="#7E8289" stroke-width="2" stroke-linecap="round" stroke-linejoin="round"/>
<path d="M14 9.33334V18.6667" stroke="#7E8289" stroke-width="2" stroke-linecap="round" stroke-linejoin="round"/>
<path d="M9.3335 14H18.6668" stroke="#7E8289" stroke-width="2" stroke-linecap="round" stroke-linejoin="round"/>
</svg>
